This is BibTeX, Version 0.99d (TeX Live 2015/Debian)
Capacity: max_strings=35307, hash_size=35307, hash_prime=30011
The top-level auxiliary file: oracles.aux
The style file: plain.bst
Database file #1: references.bib
Repeated entry---line 311 of file references.bib
 : @inproceedings{vallee1999soot
 :                              ,
I'm skipping whatever remains of this entry
Warning--to sort, need author or key in jsr223
Warning--to sort, need author or key in jsr199
You've used 27 entries,
            2118 wiz_defined-function locations,
            626 strings with 8322 characters,
and the built_in function-call counts, 8230 in all, are:
= -- 746
> -- 494
< -- 0
+ -- 199
- -- 170
* -- 502
:= -- 1415
add.period$ -- 94
call.type$ -- 27
change.case$ -- 160
chr.to.int$ -- 0
cite$ -- 29
duplicate$ -- 327
empty$ -- 688
format.name$ -- 170
if$ -- 1736
int.to.chr$ -- 0
int.to.str$ -- 27
missing$ -- 25
newline$ -- 136
num.names$ -- 50
pop$ -- 265
preamble$ -- 1
purify$ -- 138
quote$ -- 0
skip$ -- 164
stack$ -- 0
substring$ -- 156
swap$ -- 43
text.length$ -- 0
text.prefix$ -- 0
top$ -- 0
type$ -- 100
warning$ -- 2
while$ -- 52
width$ -- 29
write$ -- 285
(There was 1 error message)
